<?xml version="1.0" encoding="UTF-8" standalone="no"?><svg xmlns="http://www.w3.org/2000/svg" xmlns:xlink="http://www.w3.org/1999/xlink" contentScriptType="application/ecmascript" contentStyleType="text/css" height="609px" preserveAspectRatio="none" style="width:527px;height:609px;" version="1.1" viewBox="0 0 527 609" width="527px" zoomAndPan="magnify"><defs/><g><ellipse cx="189.625" cy="20" fill="#000000" rx="10" ry="10" style="stroke: none; stroke-width: 1.0;"/><rect fill="#FFFFFF" height="33.9688" rx="12.5" ry="12.5" style="stroke: #800080; stroke-width: 1.5;" width="125" x="127.125" y="50"/><text fill="#000000" font-family="sans-serif" font-size="12" lengthAdjust="spacingAndGlyphs" textLength="105" x="137.125" y="71.1387">text = event.text</text><polygon fill="#FFFFFF" points="139.625,152.3711,239.625,152.3711,251.625,164.3711,239.625,176.3711,139.625,176.3711,127.625,164.3711,139.625,152.3711" style="stroke: #FF0000; stroke-width: 1.5;"/><text fill="#000000" font-family="sans-serif" font-size="11" lengthAdjust="spacingAndGlyphs" textLength="100" x="139.625" y="168.1792">this.value.empty?</text><text fill="#000000" font-family="sans-serif" font-size="11" lengthAdjust="spacingAndGlyphs" textLength="35" x="92.625" y="161.7769">empty</text><text fill="#000000" font-family="sans-serif" font-size="11" lengthAdjust="spacingAndGlyphs" textLength="57" x="251.625" y="161.7769">not empty</text><rect fill="#FFFFFF" height="33.9688" rx="12.5" ry="12.5" style="stroke: #800080; stroke-width: 1.5;" width="122" x="10" y="186.3711"/><text fill="#000000" font-family="sans-serif" font-size="12" lengthAdjust="spacingAndGlyphs" textLength="102" x="20" y="207.5098">this.value = text</text><polygon fill="#FFFFFF" points="245.75,186.3711,370.75,186.3711,382.75,198.3711,370.75,210.3711,245.75,210.3711,233.75,198.3711,245.75,186.3711" style="stroke: #FF0000; stroke-width: 1.5;"/><text fill="#000000" font-family="sans-serif" font-size="11" lengthAdjust="spacingAndGlyphs" textLength="125" x="245.75" y="202.1792">cursor.position == 0?</text><text fill="#000000" font-family="sans-serif" font-size="11" lengthAdjust="spacingAndGlyphs" textLength="7" x="226.75" y="195.7769">0</text><text fill="#000000" font-family="sans-serif" font-size="11" lengthAdjust="spacingAndGlyphs" textLength="29" x="382.75" y="195.7769">not 0</text><rect fill="#FFFFFF" height="33.9688" rx="12.5" ry="12.5" style="stroke: #800080; stroke-width: 1.5;" width="122" x="162" y="220.3711"/><text fill="#000000" font-family="sans-serif" font-size="12" lengthAdjust="spacingAndGlyphs" textLength="102" x="172" y="241.5098">this.value = text</text><rect fill="#FFFFFF" height="33.9688" rx="12.5" ry="12.5" style="stroke: #800080; stroke-width: 1.5;" width="126" x="330.5" y="268.7734"/><text fill="#000000" font-family="sans-serif" font-size="12" lengthAdjust="spacingAndGlyphs" textLength="106" x="340.5" y="289.9121">next.value = text</text><rect fill="#FFFFFF" height="33.9688" style="stroke: #800080; stroke-width: 1.5;" width="95" x="346" y="322.7422"/><line style="stroke: #800080; stroke-width: 1.5;" x1="351" x2="351" y1="322.7422" y2="356.7109"/><line style="stroke: #800080; stroke-width: 1.5;" x1="436" x2="436" y1="322.7422" y2="356.7109"/><text fill="#000000" font-family="sans-serif" font-size="12" lengthAdjust="spacingAndGlyphs" textLength="75" x="356" y="343.8809">next.focus()</text><rect fill="#FFFFFF" height="33.9688" style="stroke: #800080; stroke-width: 1.5;" width="159" x="314" y="376.7109"/><line style="stroke: #800080; stroke-width: 1.5;" x1="319" x2="319" y1="376.7109" y2="410.6797"/><line style="stroke: #800080; stroke-width: 1.5;" x1="468" x2="468" y1="376.7109" y2="410.6797"/><text fill="#000000" font-family="sans-serif" font-size="12" lengthAdjust="spacingAndGlyphs" textLength="139" x="324" y="397.8496">next.setSelection(1,1)</text><polygon fill="#FFFFFF" points="349,220.3711,438,220.3711,450,232.3711,438,244.3711,349,244.3711,337,232.3711,349,220.3711" style="stroke: #FF0000; stroke-width: 1.5;"/><text fill="#000000" font-family="sans-serif" font-size="11" lengthAdjust="spacingAndGlyphs" textLength="42" x="397.5" y="254.5815">not null</text><text fill="#000000" font-family="sans-serif" font-size="11" lengthAdjust="spacingAndGlyphs" textLength="89" x="349" y="236.1792">this.next != null</text><polygon fill="#FFFFFF" points="393.5,430.6797,405.5,442.6797,393.5,454.6797,381.5,442.6797,393.5,430.6797" style="stroke: #FF0000; stroke-width: 1.5;"/><polygon fill="#FFFFFF" points="308.25,460.6797,320.25,472.6797,308.25,484.6797,296.25,472.6797,308.25,460.6797" style="stroke: #FF0000; stroke-width: 1.5;"/><polygon fill="#FFFFFF" points="189.625,490.6797,201.625,502.6797,189.625,514.6797,177.625,502.6797,189.625,490.6797" style="stroke: #FF0000; stroke-width: 1.5;"/><polygon fill="#FFFFFF" points="134.125,103.9688,245.125,103.9688,257.125,115.9688,245.125,127.9688,134.125,127.9688,122.125,115.9688,134.125,103.9688" style="stroke: #FF0000; stroke-width: 1.5;"/><text fill="#000000" font-family="sans-serif" font-size="11" lengthAdjust="spacingAndGlyphs" textLength="23" x="193.625" y="138.1792">true</text><text fill="#000000" font-family="sans-serif" font-size="11" lengthAdjust="spacingAndGlyphs" textLength="111" x="134.125" y="119.7769">/^[0-9]$/.test(text)?</text><polygon fill="#FFFFFF" points="189.625,534.6797,201.625,546.6797,189.625,558.6797,177.625,546.6797,189.625,534.6797" style="stroke: #FF0000; stroke-width: 1.5;"/><ellipse cx="189.625" cy="588.6797" fill="none" rx="10" ry="10" style="stroke: #000000; stroke-width: 1.0;"/><ellipse cx="190.125" cy="589.1797" fill="#000000" rx="6" ry="6" style="stroke: none; stroke-width: 1.0;"/><line style="stroke: #000000; stroke-width: 1.5;" x1="189.625" x2="189.625" y1="30" y2="50"/><polygon fill="#000000" points="185.625,40,189.625,50,193.625,40,189.625,44" style="stroke: #000000; stroke-width: 1.0;"/><line style="stroke: #000000; stroke-width: 1.5;" x1="393.5" x2="393.5" y1="302.7422" y2="322.7422"/><polygon fill="#000000" points="389.5,312.7422,393.5,322.7422,397.5,312.7422,393.5,316.7422" style="stroke: #000000; stroke-width: 1.0;"/><line style="stroke: #000000; stroke-width: 1.5;" x1="393.5" x2="393.5" y1="356.7109" y2="376.7109"/><polygon fill="#000000" points="389.5,366.7109,393.5,376.7109,397.5,366.7109,393.5,370.7109" style="stroke: #000000; stroke-width: 1.0;"/><line style="stroke: #000000; stroke-width: 1.5;" x1="393.5" x2="393.5" y1="244.3711" y2="268.7734"/><polygon fill="#000000" points="389.5,258.7734,393.5,268.7734,397.5,258.7734,393.5,262.7734" style="stroke: #000000; stroke-width: 1.0;"/><line style="stroke: #000000; stroke-width: 1.5;" x1="450" x2="483" y1="232.3711" y2="232.3711"/><polygon fill="#000000" points="479,329.7266,483,339.7266,487,329.7266,483,333.7266" style="stroke: #000000; stroke-width: 1.5;"/><line style="stroke: #000000; stroke-width: 1.5;" x1="483" x2="483" y1="232.3711" y2="442.6797"/><line style="stroke: #000000; stroke-width: 1.5;" x1="483" x2="405.5" y1="442.6797" y2="442.6797"/><polygon fill="#000000" points="415.5,438.6797,405.5,442.6797,415.5,446.6797,411.5,442.6797" style="stroke: #000000; stroke-width: 1.0;"/><line style="stroke: #000000; stroke-width: 1.5;" x1="393.5" x2="393.5" y1="410.6797" y2="430.6797"/><polygon fill="#000000" points="389.5,420.6797,393.5,430.6797,397.5,420.6797,393.5,424.6797" style="stroke: #000000; stroke-width: 1.0;"/><line style="stroke: #000000; stroke-width: 1.5;" x1="233.75" x2="223" y1="198.3711" y2="198.3711"/><line style="stroke: #000000; stroke-width: 1.5;" x1="223" x2="223" y1="198.3711" y2="220.3711"/><polygon fill="#000000" points="219,210.3711,223,220.3711,227,210.3711,223,214.3711" style="stroke: #000000; stroke-width: 1.0;"/><line style="stroke: #000000; stroke-width: 1.5;" x1="382.75" x2="393.5" y1="198.3711" y2="198.3711"/><line style="stroke: #000000; stroke-width: 1.5;" x1="393.5" x2="393.5" y1="198.3711" y2="220.3711"/><polygon fill="#000000" points="389.5,210.3711,393.5,220.3711,397.5,210.3711,393.5,214.3711" style="stroke: #000000; stroke-width: 1.0;"/><line style="stroke: #000000; stroke-width: 1.5;" x1="223" x2="223" y1="254.3398" y2="472.6797"/><line style="stroke: #000000; stroke-width: 1.5;" x1="223" x2="296.25" y1="472.6797" y2="472.6797"/><polygon fill="#000000" points="286.25,468.6797,296.25,472.6797,286.25,476.6797,290.25,472.6797" style="stroke: #000000; stroke-width: 1.0;"/><line style="stroke: #000000; stroke-width: 1.5;" x1="393.5" x2="393.5" y1="454.6797" y2="472.6797"/><line style="stroke: #000000; stroke-width: 1.5;" x1="393.5" x2="320.25" y1="472.6797" y2="472.6797"/><polygon fill="#000000" points="330.25,468.6797,320.25,472.6797,330.25,476.6797,326.25,472.6797" style="stroke: #000000; stroke-width: 1.0;"/><line style="stroke: #000000; stroke-width: 1.5;" x1="127.625" x2="71" y1="164.3711" y2="164.3711"/><line style="stroke: #000000; stroke-width: 1.5;" x1="71" x2="71" y1="164.3711" y2="186.3711"/><polygon fill="#000000" points="67,176.3711,71,186.3711,75,176.3711,71,180.3711" style="stroke: #000000; stroke-width: 1.0;"/><line style="stroke: #000000; stroke-width: 1.5;" x1="251.625" x2="308.25" y1="164.3711" y2="164.3711"/><line style="stroke: #000000; stroke-width: 1.5;" x1="308.25" x2="308.25" y1="164.3711" y2="186.3711"/><polygon fill="#000000" points="304.25,176.3711,308.25,186.3711,312.25,176.3711,308.25,180.3711" style="stroke: #000000; stroke-width: 1.0;"/><line style="stroke: #000000; stroke-width: 1.5;" x1="71" x2="71" y1="220.3398" y2="502.6797"/><line style="stroke: #000000; stroke-width: 1.5;" x1="71" x2="177.625" y1="502.6797" y2="502.6797"/><polygon fill="#000000" points="167.625,498.6797,177.625,502.6797,167.625,506.6797,171.625,502.6797" style="stroke: #000000; stroke-width: 1.0;"/><line style="stroke: #000000; stroke-width: 1.5;" x1="308.25" x2="308.25" y1="484.6797" y2="502.6797"/><line style="stroke: #000000; stroke-width: 1.5;" x1="308.25" x2="201.625" y1="502.6797" y2="502.6797"/><polygon fill="#000000" points="211.625,498.6797,201.625,502.6797,211.625,506.6797,207.625,502.6797" style="stroke: #000000; stroke-width: 1.0;"/><line style="stroke: #000000; stroke-width: 1.5;" x1="189.625" x2="189.625" y1="127.9688" y2="152.3711"/><polygon fill="#000000" points="185.625,142.3711,189.625,152.3711,193.625,142.3711,189.625,146.3711" style="stroke: #000000; stroke-width: 1.0;"/><line style="stroke: #000000; stroke-width: 1.5;" x1="257.125" x2="501" y1="115.9688" y2="115.9688"/><polygon fill="#000000" points="497,325.7266,501,335.7266,505,325.7266,501,329.7266" style="stroke: #000000; stroke-width: 1.5;"/><line style="stroke: #000000; stroke-width: 1.5;" x1="501" x2="501" y1="115.9688" y2="546.6797"/><line style="stroke: #000000; stroke-width: 1.5;" x1="501" x2="201.625" y1="546.6797" y2="546.6797"/><polygon fill="#000000" points="211.625,542.6797,201.625,546.6797,211.625,550.6797,207.625,546.6797" style="stroke: #000000; stroke-width: 1.0;"/><line style="stroke: #000000; stroke-width: 1.5;" x1="189.625" x2="189.625" y1="514.6797" y2="534.6797"/><polygon fill="#000000" points="185.625,524.6797,189.625,534.6797,193.625,524.6797,189.625,528.6797" style="stroke: #000000; stroke-width: 1.0;"/><line style="stroke: #000000; stroke-width: 1.5;" x1="189.625" x2="189.625" y1="83.9688" y2="103.9688"/><polygon fill="#000000" points="185.625,93.9688,189.625,103.9688,193.625,93.9688,189.625,97.9688" style="stroke: #000000; stroke-width: 1.0;"/><line style="stroke: #000000; stroke-width: 1.5;" x1="189.625" x2="189.625" y1="558.6797" y2="578.6797"/><polygon fill="#000000" points="185.625,568.6797,189.625,578.6797,193.625,568.6797,189.625,572.6797" style="stroke: #000000; stroke-width: 1.0;"/><!--
@startuml number-input

skinparam activityArrowColor black
skinparam activityBorderColor purple
skinparam actorBorderColor black
skinparam usecaseArrowColor black
skinparam usecaseBorderColor black
skinparam classArrowColor black
skinparam classBorderColor purple
skinparam objectBorderColor black
skinparam packageBorderColor black
skinparam componentArrowColor black
skinparam componentBorderColor black
skinparam componentInterfaceBorderColor black
skinparam noteBorderColor black
skinparam stateBorderColor black
skinparam stateArrowColor black
skinparam sequenceArrowColor black
skinparam sequenceLifeLineBorderColor black
skinparam sequenceParticipantBorderColor black
skinparam sequenceBoxLineColor black
skinparam activityBackgroundColor white
skinparam actorBackgroundColor white
skinparam usecaseBackgroundColor white
skinparam classBackgroundColor white
skinparam objectBackgroundColor white
skinparam packageBackgroundColor white
skinparam componentBackgroundColor white
skinparam componentInterfaceBackgroundColor white
skinparam stateBackgroundColor white
skinparam sequenceParticipantBackgroundColor white
skinparam componentstyle uml2
skinparam interface {
  backgroundColor white
  borderColor purple
}

skinparam ActivityDiamondBackgroundColor white
skinparam ActivityDiamondBorderColor red

skinparam shadowing false

hide methods
hide fields
 

start

:text = event.text;

if (/^[0-9]$/.test(text)?) then (true)
    if (this.value.empty?) then (empty)
        :this.value = text;
    else (not empty)
        if (cursor.position == 0?) then (0)
            :this.value = text;
        else (not 0)
            if (this.next != null) then (not null)
                :next.value = text;
                :next.focus()|
                :next.setSelection(1,1)|
            endif
        endif
    endif
endif

stop

@enduml

PlantUML version 1.2018.12(Sun Oct 21 13:15:15 MSK 2018)
(GPL source distribution)
Java Runtime: OpenJDK Runtime Environment
JVM: OpenJDK 64-Bit Server VM
Java Version: 1.8.0_192-b26
Operating System: Linux
OS Version: 4.14.85-1-MANJARO
Default Encoding: UTF-8
Language: ru
Country: RU
--></g></svg>