<?xml version="1.0" encoding="UTF-8" standalone="no"?><svg xmlns="http://www.w3.org/2000/svg" xmlns:xlink="http://www.w3.org/1999/xlink" contentScriptType="application/ecmascript" contentStyleType="text/css" height="681px" preserveAspectRatio="none" style="width:545px;height:681px;" version="1.1" viewBox="0 0 545 681" width="545px" zoomAndPan="magnify"><defs/><g><rect fill="#FFFFFF" height="402.7266" style="stroke: #000000; stroke-width: 1.0;" width="10" x="29.5" y="107.5625"/><rect fill="#FFFFFF" height="185.6641" style="stroke: #000000; stroke-width: 1.0;" width="10" x="128.5" y="44.2969"/><rect fill="#FFFFFF" height="186.7969" style="stroke: #000000; stroke-width: 1.0;" width="10" x="128.5" y="323.4922"/><rect fill="#FFFFFF" height="58.2656" style="stroke: #000000; stroke-width: 1.0;" width="10" x="272.5" y="136.6953"/><rect fill="#FFFFFF" height="86.3984" style="stroke: #000000; stroke-width: 1.0;" width="10" x="272.5" y="352.625"/><rect fill="#FFFFFF" height="93.2656" style="stroke: #000000; stroke-width: 1.0;" width="10" x="272.5" y="539.4219"/><rect fill="#FFFFFF" height="373.5938" style="stroke: #000000; stroke-width: 1.0;" width="10" x="401.5" y="165.8281"/><line style="stroke: #000000; stroke-width: 1.0; stroke-dasharray: 5.0,5.0;" x1="34" x2="34" y1="34.2969" y2="641.6875"/><line style="stroke: #000000; stroke-width: 1.0; stroke-dasharray: 5.0,5.0;" x1="133" x2="133" y1="34.2969" y2="641.6875"/><line style="stroke: #000000; stroke-width: 1.0; stroke-dasharray: 5.0,5.0;" x1="277" x2="277" y1="34.2969" y2="641.6875"/><line style="stroke: #000000; stroke-width: 1.0; stroke-dasharray: 5.0,5.0;" x1="406.5" x2="406.5" y1="34.2969" y2="641.6875"/><rect fill="#FFFFFF" height="30.2969" style="stroke: #000000; stroke-width: 1.5;" width="53" x="8" y="3"/><text fill="#000000" font-family="sans-serif" font-size="14" lengthAdjust="spacingAndGlyphs" textLength="39" x="15" y="22.9951">Timer</text><rect fill="#FFFFFF" height="30.2969" style="stroke: #000000; stroke-width: 1.5;" width="53" x="8" y="640.6875"/><text fill="#000000" font-family="sans-serif" font-size="14" lengthAdjust="spacingAndGlyphs" textLength="39" x="15" y="660.6826">Timer</text><rect fill="#FFFFFF" height="30.2969" style="stroke: #000000; stroke-width: 1.5;" width="49" x="109" y="3"/><text fill="#000000" font-family="sans-serif" font-size="14" lengthAdjust="spacingAndGlyphs" textLength="35" x="116" y="22.9951">Form</text><rect fill="#FFFFFF" height="30.2969" style="stroke: #000000; stroke-width: 1.5;" width="49" x="109" y="640.6875"/><text fill="#000000" font-family="sans-serif" font-size="14" lengthAdjust="spacingAndGlyphs" textLength="35" x="116" y="660.6826">Form</text><rect fill="#FFFFFF" height="30.2969" style="stroke: #000000; stroke-width: 1.5;" width="93" x="231" y="3"/><text fill="#000000" font-family="sans-serif" font-size="14" lengthAdjust="spacingAndGlyphs" textLength="79" x="238" y="22.9951">WebSocket</text><rect fill="#FFFFFF" height="30.2969" style="stroke: #000000; stroke-width: 1.5;" width="93" x="231" y="640.6875"/><text fill="#000000" font-family="sans-serif" font-size="14" lengthAdjust="spacingAndGlyphs" textLength="79" x="238" y="660.6826">WebSocket</text><rect fill="#FFFFFF" height="30.2969" style="stroke: #000000; stroke-width: 1.5;" width="80" x="366.5" y="3"/><text fill="#000000" font-family="sans-serif" font-size="14" lengthAdjust="spacingAndGlyphs" textLength="66" x="373.5" y="22.9951">Back-end</text><rect fill="#FFFFFF" height="30.2969" style="stroke: #000000; stroke-width: 1.5;" width="80" x="366.5" y="640.6875"/><text fill="#000000" font-family="sans-serif" font-size="14" lengthAdjust="spacingAndGlyphs" textLength="66" x="373.5" y="660.6826">Back-end</text><rect fill="#FFFFFF" height="402.7266" style="stroke: #000000; stroke-width: 1.0;" width="10" x="29.5" y="107.5625"/><rect fill="#FFFFFF" height="185.6641" style="stroke: #000000; stroke-width: 1.0;" width="10" x="128.5" y="44.2969"/><rect fill="#FFFFFF" height="186.7969" style="stroke: #000000; stroke-width: 1.0;" width="10" x="128.5" y="323.4922"/><rect fill="#FFFFFF" height="58.2656" style="stroke: #000000; stroke-width: 1.0;" width="10" x="272.5" y="136.6953"/><rect fill="#FFFFFF" height="86.3984" style="stroke: #000000; stroke-width: 1.0;" width="10" x="272.5" y="352.625"/><rect fill="#FFFFFF" height="93.2656" style="stroke: #000000; stroke-width: 1.0;" width="10" x="272.5" y="539.4219"/><rect fill="#FFFFFF" height="373.5938" style="stroke: #000000; stroke-width: 1.0;" width="10" x="401.5" y="165.8281"/><line style="stroke: #000000; stroke-width: 1.0;" x1="138.5" x2="180.5" y1="65.4297" y2="65.4297"/><line style="stroke: #000000; stroke-width: 1.0;" x1="180.5" x2="180.5" y1="65.4297" y2="78.4297"/><line style="stroke: #000000; stroke-width: 1.0;" x1="139.5" x2="180.5" y1="78.4297" y2="78.4297"/><polygon fill="#000000" points="149.5,74.4297,139.5,78.4297,149.5,82.4297,145.5,78.4297" style="stroke: #000000; stroke-width: 1.0;"/><text fill="#000000" font-family="sans-serif" font-size="13" lengthAdjust="spacingAndGlyphs" textLength="94" x="145.5" y="60.3638">Block interface</text><polygon fill="#000000" points="50.5,103.5625,40.5,107.5625,50.5,111.5625,46.5,107.5625" style="stroke: #000000; stroke-width: 1.0;"/><line style="stroke: #000000; stroke-width: 1.0; stroke-dasharray: 2.0,2.0;" x1="44.5" x2="127.5" y1="107.5625" y2="107.5625"/><text fill="#000000" font-family="sans-serif" font-size="13" lengthAdjust="spacingAndGlyphs" textLength="70" x="56.5" y="102.4966">Start timer</text><polygon fill="#000000" points="260.5,132.6953,270.5,136.6953,260.5,140.6953,264.5,136.6953" style="stroke: #000000; stroke-width: 1.0;"/><line style="stroke: #000000; stroke-width: 1.0;" x1="138.5" x2="266.5" y1="136.6953" y2="136.6953"/><text fill="#000000" font-family="sans-serif" font-size="13" lengthAdjust="spacingAndGlyphs" textLength="96" x="145.5" y="131.6294">Create request</text><polygon fill="#000000" points="389.5,161.8281,399.5,165.8281,389.5,169.8281,393.5,165.8281" style="stroke: #000000; stroke-width: 1.0;"/><line style="stroke: #000000; stroke-width: 1.0; stroke-dasharray: 2.0,2.0;" x1="282.5" x2="395.5" y1="165.8281" y2="165.8281"/><text fill="#000000" font-family="sans-serif" font-size="13" lengthAdjust="spacingAndGlyphs" textLength="86" x="289.5" y="160.7622">Send request</text><polygon fill="#000000" points="149.5,190.9609,139.5,194.9609,149.5,198.9609,145.5,194.9609" style="stroke: #000000; stroke-width: 1.0;"/><line style="stroke: #000000; stroke-width: 1.0;" x1="143.5" x2="276.5" y1="194.9609" y2="194.9609"/><text fill="#000000" font-family="sans-serif" font-size="13" lengthAdjust="spacingAndGlyphs" textLength="110" x="155.5" y="189.895">Return request id</text><line style="stroke: #000000; stroke-width: 1.0;" x1="138.5" x2="180.5" y1="229.0938" y2="229.0938"/><line style="stroke: #000000; stroke-width: 1.0;" x1="180.5" x2="180.5" y1="229.0938" y2="242.0938"/><line style="stroke: #000000; stroke-width: 1.0;" x1="133.5" x2="180.5" y1="242.0938" y2="242.0938"/><polygon fill="#000000" points="143.5,238.0938,133.5,242.0938,143.5,246.0938,139.5,242.0938" style="stroke: #000000; stroke-width: 1.0;"/><text fill="#000000" font-family="sans-serif" font-size="13" lengthAdjust="spacingAndGlyphs" textLength="100" x="145.5" y="224.0278">Save request id</text><line style="stroke: #000000; stroke-width: 1.0;" x1="411.5" x2="453.5" y1="281.3594" y2="281.3594"/><line style="stroke: #000000; stroke-width: 1.0;" x1="453.5" x2="453.5" y1="281.3594" y2="294.3594"/><line style="stroke: #000000; stroke-width: 1.0;" x1="412.5" x2="453.5" y1="294.3594" y2="294.3594"/><polygon fill="#000000" points="422.5,290.3594,412.5,294.3594,422.5,298.3594,418.5,294.3594" style="stroke: #000000; stroke-width: 1.0;"/><text fill="#000000" font-family="sans-serif" font-size="13" lengthAdjust="spacingAndGlyphs" textLength="58" x="418.5" y="261.1606">very long</text><text fill="#000000" font-family="sans-serif" font-size="13" lengthAdjust="spacingAndGlyphs" textLength="115" x="418.5" y="276.2935">request procesing</text><polygon fill="#000000" points="116.5,319.4922,126.5,323.4922,116.5,327.4922,120.5,323.4922" style="stroke: #000000; stroke-width: 1.0;"/><line style="stroke: #000000; stroke-width: 1.0;" x1="39.5" x2="122.5" y1="323.4922" y2="323.4922"/><text fill="#000000" font-family="sans-serif" font-size="13" lengthAdjust="spacingAndGlyphs" textLength="52" x="46.5" y="318.4263">Timeout</text><polygon fill="#000000" points="260.5,348.625,270.5,352.625,260.5,356.625,264.5,352.625" style="stroke: #000000; stroke-width: 1.0;"/><line style="stroke: #000000; stroke-width: 1.0;" x1="138.5" x2="266.5" y1="352.625" y2="352.625"/><text fill="#000000" font-family="sans-serif" font-size="13" lengthAdjust="spacingAndGlyphs" textLength="96" x="145.5" y="347.5591">Cancel request</text><line style="stroke: #000000; stroke-width: 1.0;" x1="282.5" x2="324.5" y1="396.8906" y2="396.8906"/><line style="stroke: #000000; stroke-width: 1.0;" x1="324.5" x2="324.5" y1="396.8906" y2="409.8906"/><line style="stroke: #000000; stroke-width: 1.0;" x1="283.5" x2="324.5" y1="409.8906" y2="409.8906"/><polygon fill="#000000" points="293.5,405.8906,283.5,409.8906,293.5,413.8906,289.5,409.8906" style="stroke: #000000; stroke-width: 1.0;"/><text fill="#000000" font-family="sans-serif" font-size="13" lengthAdjust="spacingAndGlyphs" textLength="105" x="289.5" y="376.6919">Remove request</text><text fill="#000000" font-family="sans-serif" font-size="13" lengthAdjust="spacingAndGlyphs" textLength="74" x="289.5" y="391.8247">from queue</text><polygon fill="#000000" points="149.5,435.0234,139.5,439.0234,149.5,443.0234,145.5,439.0234" style="stroke: #000000; stroke-width: 1.0;"/><line style="stroke: #000000; stroke-width: 1.0;" x1="143.5" x2="276.5" y1="439.0234" y2="439.0234"/><text fill="#000000" font-family="sans-serif" font-size="13" lengthAdjust="spacingAndGlyphs" textLength="42" x="155.5" y="433.9575">Return</text><line style="stroke: #000000; stroke-width: 1.0;" x1="138.5" x2="180.5" y1="468.1563" y2="468.1563"/><line style="stroke: #000000; stroke-width: 1.0;" x1="180.5" x2="180.5" y1="468.1563" y2="481.1563"/><line style="stroke: #000000; stroke-width: 1.0;" x1="139.5" x2="180.5" y1="481.1563" y2="481.1563"/><polygon fill="#000000" points="149.5,477.1563,139.5,481.1563,149.5,485.1563,145.5,481.1563" style="stroke: #000000; stroke-width: 1.0;"/><text fill="#000000" font-family="sans-serif" font-size="13" lengthAdjust="spacingAndGlyphs" textLength="111" x="145.5" y="463.0903">Unblock interface</text><polygon fill="#000000" points="45.5,506.2891,35.5,510.2891,45.5,514.2891,41.5,510.2891" style="stroke: #000000; stroke-width: 1.0;"/><line style="stroke: #000000; stroke-width: 1.0;" x1="39.5" x2="132.5" y1="510.2891" y2="510.2891"/><text fill="#000000" font-family="sans-serif" font-size="13" lengthAdjust="spacingAndGlyphs" textLength="42" x="51.5" y="505.2231">Return</text><polygon fill="#000000" points="293.5,535.4219,283.5,539.4219,293.5,543.4219,289.5,539.4219" style="stroke: #000000; stroke-width: 1.0;"/><line style="stroke: #000000; stroke-width: 1.0; stroke-dasharray: 2.0,2.0;" x1="287.5" x2="405.5" y1="539.4219" y2="539.4219"/><text fill="#000000" font-family="sans-serif" font-size="13" lengthAdjust="spacingAndGlyphs" textLength="96" x="299.5" y="534.356">Send response</text><line style="stroke: #000000; stroke-width: 1.0;" x1="282.5" x2="324.5" y1="568.5547" y2="568.5547"/><line style="stroke: #000000; stroke-width: 1.0;" x1="324.5" x2="324.5" y1="568.5547" y2="581.5547"/><line style="stroke: #000000; stroke-width: 1.0;" x1="283.5" x2="324.5" y1="581.5547" y2="581.5547"/><polygon fill="#000000" points="293.5,577.5547,283.5,581.5547,293.5,585.5547,289.5,581.5547" style="stroke: #000000; stroke-width: 1.0;"/><text fill="#000000" font-family="sans-serif" font-size="13" lengthAdjust="spacingAndGlyphs" textLength="102" x="289.5" y="563.4888">Check response</text><line style="stroke: #000000; stroke-width: 1.0;" x1="282.5" x2="324.5" y1="610.6875" y2="610.6875"/><line style="stroke: #000000; stroke-width: 1.0;" x1="324.5" x2="324.5" y1="610.6875" y2="623.6875"/><line style="stroke: #000000; stroke-width: 1.0;" x1="283.5" x2="324.5" y1="623.6875" y2="623.6875"/><polygon fill="#000000" points="293.5,619.6875,283.5,623.6875,293.5,627.6875,289.5,623.6875" style="stroke: #000000; stroke-width: 1.0;"/><text fill="#000000" font-family="sans-serif" font-size="13" lengthAdjust="spacingAndGlyphs" textLength="40" x="289.5" y="605.6216">Ignore</text><!--
@startuml timeout

skinparam activityArrowColor black
skinparam activityBorderColor purple
skinparam actorBorderColor black
skinparam usecaseArrowColor black
skinparam usecaseBorderColor black
skinparam classArrowColor black
skinparam classBorderColor purple
skinparam objectBorderColor black
skinparam packageBorderColor black
skinparam componentArrowColor black
skinparam componentBorderColor black
skinparam componentInterfaceBorderColor black
skinparam noteBorderColor black
skinparam stateBorderColor black
skinparam stateArrowColor black
skinparam sequenceArrowColor black
skinparam sequenceLifeLineBorderColor black
skinparam sequenceParticipantBorderColor black
skinparam sequenceBoxLineColor black
skinparam activityBackgroundColor white
skinparam actorBackgroundColor white
skinparam usecaseBackgroundColor white
skinparam classBackgroundColor white
skinparam objectBackgroundColor white
skinparam packageBackgroundColor white
skinparam componentBackgroundColor white
skinparam componentInterfaceBackgroundColor white
skinparam stateBackgroundColor white
skinparam sequenceParticipantBackgroundColor white
skinparam componentstyle uml2
skinparam interface {
  backgroundColor white
  borderColor purple
}

skinparam ActivityDiamondBackgroundColor white
skinparam ActivityDiamondBorderColor red

skinparam shadowing false

hide methods
hide fields
 

participant Timer as time
participant Form as form
participant WebSocket as ws
participant "Back-end" as back

activate form
    form -> form : Block interface
    form - -> time : Start timer
activate time
    form -> ws : Create request
activate ws
    ws - -> back : Send request
activate back
    ws -> form : Return request id
deactivate ws
    form -> form : Save request id
deactivate form
    back -> back : very long \nrequest procesing
    time -> form : Timeout
activate form
    form -> ws : Cancel request
activate ws
    ws -> ws : Remove request\nfrom queue
    ws -> form : Return
deactivate ws
    form -> form : Unblock interface
    form -> time : Return
deactivate form
deactivate time
    back - -> ws : Send response
deactivate back
activate ws
    ws -> ws : Check response
    ws -> ws : Ignore

@enduml

PlantUML version 1.2018.12(Sun Oct 21 13:15:15 MSK 2018)
(GPL source distribution)
Java Runtime: OpenJDK Runtime Environment
JVM: OpenJDK 64-Bit Server VM
Java Version: 1.8.0_192-b26
Operating System: Linux
OS Version: 4.14.85-1-MANJARO
Default Encoding: UTF-8
Language: ru
Country: RU
--></g></svg>