@startuml class

!include style.iuml
show fields
show methods

class WebSocket {
    int send(Request*)
    signal ready(Response*)
}

class Request {
    command : string
    requestId : string
    jwt : string
    payload : RequestPayload
}

class Response {
    command : string
    requestId: string
    code : string
    description : string
    payload : ResponsePayLoad
}

WebSocket ..> Request
WebSocket ..> Response
Request o-- RequestPayload
Response o-- ResponsePayLoad

HelloResPL -up-|> ResponsePayLoad

class HelloResPL {
    message : string
}

RequestPayload <|- RequestCodeReqPL

class RequestCodeReqPL {
    phone : string
    type : string
}

ResponsePayLoad <|-- RequestCodeResPL

class RequestCodeResPL {
    token : string
}

RequestPayload <|-- RequestJwtReqPL

class RequestJwtReqPL {
    type : string
    code : string
    resetPassword : bool
    restore : bool
    token : string
}

ResponsePayLoad <|-- RequestJwtResPL

class RequestJwtResPL {
    jwt : string
    userId : string
}

PresenceReqPL -|> RequestPayload

class PresenceReqPL {
    jwt : string
}

RequestPayload <|-- ProfileUpdateReqPL

class ProfileUpdateReqPL {
    name : string
    firstName : string
    surname : string
}

ResponsePayLoad -right[hidden]-> PresenceReqPL

@enduml